Data Visialization
…
annual_esc <- esc %>% 
  separate(sampleDate, c("year", "month", "day"), "-", remove=F) %>% 
    #if I don't want to ungroup later, I need to do year as numeric here
    group_by(SASAP.Region, Species, year) %>% 
    summarize(annualEsc = sum(DailyCount)) %>% 
    filter(Species == "Sockeye" | Species == "Chinook" |
               Species =="Coho" | Species =="Pink" | Species=="Chum") %>% 
    #need to coerce year to numeric type
    ungroup() %>% 
    mutate(year=as.numeric(year))
annual_esc

## # A tibble: 1,484 x 4
##    SASAP.Region                          Species  year annualEsc
##    <chr>                                 <chr>   <dbl>     <int>
##  1 Alaska Peninsula and Aleutian Islands Chinook  1974      1092
##  2 Alaska Peninsula and Aleutian Islands Chinook  1975      1917
##  3 Alaska Peninsula and Aleutian Islands Chinook  1976      3045
##  4 Alaska Peninsula and Aleutian Islands Chinook  1977      4844
##  5 Alaska Peninsula and Aleutian Islands Chinook  1978      3901
##  6 Alaska Peninsula and Aleutian Islands Chinook  1979     10463
##  7 Alaska Peninsula and Aleutian Islands Chinook  1980      4506
##  8 Alaska Peninsula and Aleutian Islands Chinook  1981      5046
##  9 Alaska Peninsula and Aleutian Islands Chinook  1982      6503
## 10 Alaska Peninsula and Aleutian Islands Chinook  1983     11589
## # ... with 1,474 more rows
…
